cm007 Exercises: Practice with dplyr
…
This worksheet contains exercises aimed for practice with dplyr.

Whats the minimum life expectancy for each continent and each year? (b) Add the corresponding country to the tibble, too. (c) Arrange by min life expectancy.

gapminder %>%
  group_by(continent, year, country) %>%
   summarize(min_life = min(lifeExp)) %>%
    arrange(min_life)

## `summarise()` regrouping output by 'continent', 'year' (override with `.groups` argument)

## # A tibble: 1,704 x 4
## # Groups:   continent, year [60]
##    continent  year country      min_life
##    <fct>     <int> <fct>           <dbl>
##  1 Africa     1992 Rwanda           23.6
##  2 Asia       1952 Afghanistan      28.8
##  3 Africa     1952 Gambia           30  
##  4 Africa     1952 Angola           30.0
##  5 Africa     1952 Sierra Leone     30.3
##  6 Asia       1957 Afghanistan      30.3
##  7 Asia       1977 Cambodia         31.2
##  8 Africa     1952 Mozambique       31.3
##  9 Africa     1957 Sierra Leone     31.6
## 10 Africa     1952 Burkina Faso     32.0
## # ... with 1,694 more rows
…
